{
    "destination_addresses": [
        "Lipowa 18, 15-429 Bia\u0142ystok, Poland",
        "Antoniukowska 56, 15-001 Bia\u0142ystok, Poland",
        "Wasilkowska 1, 15-145 Bia\u0142ystok, Poland",
        "Wysoki Stoczek 54, 15-754 Bia\u0142ystok, Poland",
        "Wiejska 65, 15-351 Bia\u0142ystok, Poland",
        "Pi\u0119kna 2, 15-369 Bia\u0142ystok, Poland",
        "Aleja Jana Paw\u0142a II 51, 15-704 Bia\u0142ystok, Poland",
        "W\u0142adys\u0142awa Broniewskiego 14, 15-750 Bia\u0142ystok, Poland",
        "Weso\u0142a 16, 15-306 Bia\u0142ystok, Poland",
        "Wiewi\u00f3rcza 64, 15-532 Bia\u0142ystok, Poland"
    ],
    "origin_addresses": [
        "Lipowa 18, 15-429 Bia\u0142ystok, Poland",
        "Antoniukowska 56, 15-001 Bia\u0142ystok, Poland",
        "Wasilkowska 1, 15-145 Bia\u0142ystok, Poland",
        "Wysoki Stoczek 54, 15-754 Bia\u0142ystok, Poland",
        "Wiejska 65, 15-351 Bia\u0142ystok, Poland",
        "Pi\u0119kna 2, 15-369 Bia\u0142ystok, Poland",
        "Aleja Jana Paw\u0142a II 51, 15-704 Bia\u0142ystok, Poland",
        "W\u0142adys\u0142awa Broniewskiego 14, 15-750 Bia\u0142ystok, Poland",
        "Weso\u0142a 16, 15-306 Bia\u0142ystok, Poland",
        "Wiewi\u00f3rcza 64, 15-532 Bia\u0142ystok, Poland"
    ],
    "rows": [
        {
            "elements": [
                {
                    "distance": {
                        "text": "1 ft",
                        "value": 0
                    },
                    "duration": {
                        "text": "1 min",
                        "value": 0
                    },
                    "status": "ZERO_RESULTS"
                },
                {
                    "distance": {
                        "text": "2.2 km",
                        "value": 2204
                    },
                    "duration": {
                        "text": "6 min",
                        "value": 335
                    },
                    "status": "OK"
                },
                {
                    "distance": {
                        "text": "2.4 km",
                        "value": 2407
                    },
                    "duration": {
                        "text": "7 min",
                        "value": 408
                    },
                    "status": "OK"
                },
                {
                    "distance": {
                        "text": "4.1 km",
                        "value": 4140
                    },
                    "duration": {
                        "text": "8 min",
                        "value": 467
                    },
                    "status": "OK"
                },
                {
                    "distance": {
                        "text": "3.1 km",
                        "value": 3140
                    },
                    "duration": {
                        "text": "7 min",
                        "value": 439
                    },
                    "status": "OK"
                },
                {
                    "distance": {
                        "text": "1.1 km",
                        "value": 1136
                    },
                    "duration": {
                        "text": "8 min",
                        "value": 490
                    },
                    "status": "OK"
                },
                {
                    "distance": {
                        "text": "2.7 km",
                        "value": 2663
                    },
                    "duration": {
                        "text": "5 min",
                        "value": 324
                    },
                    "status": "OK"
                },
                {
                    "distance": {
                        "text": "1.9 km",
                        "value": 1878
                    },
                    "duration": {
                        "text": "4 min",
                        "value": 258
                    },
                    "status": "OK"
                },
                {
                    "distance": {
                        "text": "2.8 km",
                        "value": 2846
                    },
                    "duration": {
                        "text": "7 min",
                        "value": 445
                    },
                    "status": "OK"
                },
                {
                    "distance": {
                        "text": "5.7 km",
                        "value": 5672
                    },
                    "duration": {
                        "text": "12 min",
                        "value": 707
                    },
                    "status": "OK"
                }
            ]
        },
        {
            "elements": [
                {
                    "distance": {
                        "text": "2.6 km",
                        "value": 2551
                    },
                    "duration": {
                        "text": "6 min",
                        "value": 357
                    },
                    "status": "OK"
                },
                {
                    "distance": {
                        "text": "1 ft",
                        "value": 0
                    },
                    "duration": {
                        "text": "1 min",
                        "value": 0
                    },
                    "status": "ZERO_RESULTS"
                },
                {
                    "distance": {
                        "text": "5.6 km",
                        "value": 5624
                    },
                    "duration": {
                        "text": "7 min",
                        "value": 449
                    },
                    "status": "OK"
                },
                {
                    "distance": {
                        "text": "2.4 km",
                        "value": 2355
                    },
                    "duration": {
                        "text": "6 min",
                        "value": 388
                    },
                    "status": "OK"
                },
                {
                    "distance": {
                        "text": "6.5 km",
                        "value": 6543
                    },
                    "duration": {
                        "text": "12 min",
                        "value": 746
                    },
                    "status": "OK"
                },
                {
                    "distance": {
                        "text": "3.4 km",
                        "value": 3399
                    },
                    "duration": {
                        "text": "8 min",
                        "value": 509
                    },
                    "status": "OK"
                },
                {
                    "distance": {
                        "text": "1.9 km",
                        "value": 1899
                    },
                    "duration": {
                        "text": "4 min",
                        "value": 262
                    },
                    "status": "OK"
                },
                {
                    "distance": {
                        "text": "1.1 km",
                        "value": 1069
                    },
                    "duration": {
                        "text": "14 min",
                        "value": 812
                    },
                    "status": "OK"
                },
                {
                    "distance": {
                        "text": "6.6 km",
                        "value": 6598
                    },
                    "duration": {
                        "text": "13 min",
                        "value": 778
                    },
                    "status": "OK"
                },
                {
                    "distance": {
                        "text": "8 km",
                        "value": 8005
                    },
                    "duration": {
                        "text": "15 min",
                        "value": 901
                    },
                    "status": "OK"
                }
            ]
        },
        {
            "elements": [
                {
                    "distance": {
                        "text": "2.5 km",
                        "value": 2514
                    },
                    "duration": {
                        "text": "6 min",
                        "value": 358
                    },
                    "status": "OK"
                },
                {
                    "distance": {
                        "text": "3.9 km",
                        "value": 3884
                    },
                    "duration": {
                        "text": "7 min",
                        "value": 405
                    },
                    "status": "OK"
                },
                {
                    "distance": {
                        "text": "1 ft",
                        "value": 0
                    },
                    "duration": {
                        "text": "1 min",
                        "value": 0
                    },
                    "status": "ZERO_RESULTS"
                },
                {
                    "distance": {
                        "text": "6.3 km",
                        "value": 6273
                    },
                    "duration": {
                        "text": "11 min",
                        "value": 688
                    },
                    "status": "OK"
                },
                {
                    "distance": {
                        "text": "4.6 km",
                        "value": 4634
                    },
                    "duration": {
                        "text": "11 min",
                        "value": 641
                    },
                    "status": "OK"
                },
                {
                    "distance": {
                        "text": "2.4 km",
                        "value": 2428
                    },
                    "duration": {
                        "text": "6 min",
                        "value": 375
                    },
                    "status": "OK"
                },
                {
                    "distance": {
                        "text": "4.8 km",
                        "value": 4796
                    },
                    "duration": {
                        "text": "9 min",
                        "value": 545
                    },
                    "status": "OK"
                },
                {
                    "distance": {
                        "text": "4 km",
                        "value": 4011
                    },
                    "duration": {
                        "text": "8 min",
                        "value": 478
                    },
                    "status": "OK"
                },
                {
                    "distance": {
                        "text": "4.4 km",
                        "value": 4412
                    },
                    "duration": {
                        "text": "10 min",
                        "value": 598
                    },
                    "status": "OK"
                },
                {
                    "distance": {
                        "text": "6.1 km",
                        "value": 6072
                    },
                    "duration": {
                        "text": "11 min",
                        "value": 667
                    },
                    "status": "OK"
                }
            ]
        },
        {
            "elements": [
                {
                    "distance": {
                        "text": "3.8 km",
                        "value": 3812
                    },
                    "duration": {
                        "text": "8 min",
                        "value": 491
                    },
                    "status": "OK"
                },
                {
                    "distance": {
                        "text": "2.7 km",
                        "value": 2721
                    },
                    "duration": {
                        "text": "7 min",
                        "value": 441
                    },
                    "status": "OK"
                },
                {
                    "distance": {
                        "text": "7.6 km",
                        "value": 7584
                    },
                    "duration": {
                        "text": "11 min",
                        "value": 633
                    },
                    "status": "OK"
                },
                {
                    "distance": {
                        "text": "1 ft",
                        "value": 0
                    },
                    "duration": {
                        "text": "1 min",
                        "value": 0
                    },
                    "status": "ZERO_RESULTS"
                },
                {
                    "distance": {
                        "text": "6.6 km",
                        "value": 6588
                    },
                    "duration": {
                        "text": "13 min",
                        "value": 796
                    },
                    "status": "OK"
                },
                {
                    "distance": {
                        "text": "4.7 km",
                        "value": 4660
                    },
                    "duration": {
                        "text": "11 min",
                        "value": 642
                    },
                    "status": "OK"
                },
                {
                    "distance": {
                        "text": "1.3 km",
                        "value": 1257
                    },
                    "duration": {
                        "text": "4 min",
                        "value": 230
                    },
                    "status": "OK"
                },
                {
                    "distance": {
                        "text": "2.4 km",
                        "value": 2442
                    },
                    "duration": {
                        "text": "6 min",
                        "value": 372
                    },
                    "status": "OK"
                },
                {
                    "distance": {
                        "text": "6.6 km",
                        "value": 6643
                    },
                    "duration": {
                        "text": "14 min",
                        "value": 828
                    },
                    "status": "OK"
                },
                {
                    "distance": {
                        "text": "9.3 km",
                        "value": 9266
                    },
                    "duration": {
                        "text": "17 min",
                        "value": 1035
                    },
                    "status": "OK"
                }
            ]
        },
        {
            "elements": [
                {
                    "distance": {
                        "text": "2.6 km",
                        "value": 2650
                    },
                    "duration": {
                        "text": "7 min",
                        "value": 408
                    },
                    "status": "OK"
                },
                {
                    "distance": {
                        "text": "5.4 km",
                        "value": 5361
                    },
                    "duration": {
                        "text": "11 min",
                        "value": 647
                    },
                    "status": "OK"
                },
                {
                    "distance": {
                        "text": "4.2 km",
                        "value": 4202
                    },
                    "duration": {
                        "text": "10 min",
                        "value": 592
                    },
                    "status": "OK"
                },
                {
                    "distance": {
                        "text": "6.6 km",
                        "value": 6571
                    },
                    "duration": {
                        "text": "12 min",
                        "value": 746
                    },
                    "status": "OK"
                },
                {
                    "distance": {
                        "text": "1 ft",
                        "value": 0
                    },
                    "duration": {
                        "text": "1 min",
                        "value": 0
                    },
                    "status": "ZERO_RESULTS"
                },
                {
                    "distance": {
                        "text": "2 km",
                        "value": 2041
                    },
                    "duration": {
                        "text": "5 min",
                        "value": 277
                    },
                    "status": "OK"
                },
                {
                    "distance": {
                        "text": "5.1 km",
                        "value": 5094
                    },
                    "duration": {
                        "text": "10 min",
                        "value": 603
                    },
                    "status": "OK"
                },
                {
                    "distance": {
                        "text": "4.9 km",
                        "value": 4876
                    },
                    "duration": {
                        "text": "10 min",
                        "value": 596
                    },
                    "status": "OK"
                },
                {
                    "distance": {
                        "text": "2 km",
                        "value": 1971
                    },
                    "duration": {
                        "text": "5 min",
                        "value": 273
                    },
                    "status": "OK"
                },
                {
                    "distance": {
                        "text": "4.6 km",
                        "value": 4611
                    },
                    "duration": {
                        "text": "8 min",
                        "value": 477
                    },
                    "status": "OK"
                }
            ]
        },
        {
            "elements": [
                {
                    "distance": {
                        "text": "846 m",
                        "value": 846
                    },
                    "duration": {
                        "text": "7 min",
                        "value": 424
                    },
                    "status": "OK"
                },
                {
                    "distance": {
                        "text": "4.4 km",
                        "value": 4394
                    },
                    "duration": {
                        "text": "9 min",
                        "value": 565
                    },
                    "status": "OK"
                },
                {
                    "distance": {
                        "text": "2.9 km",
                        "value": 2927
                    },
                    "duration": {
                        "text": "7 min",
                        "value": 439
                    },
                    "status": "OK"
                },
                {
                    "distance": {
                        "text": "5.1 km",
                        "value": 5093
                    },
                    "duration": {
                        "text": "11 min",
                        "value": 684
                    },
                    "status": "OK"
                },
                {
                    "distance": {
                        "text": "2.3 km",
                        "value": 2312
                    },
                    "duration": {
                        "text": "5 min",
                        "value": 305
                    },
                    "status": "OK"
                },
                {
                    "distance": {
                        "text": "1 ft",
                        "value": 0
                    },
                    "duration": {
                        "text": "1 min",
                        "value": 0
                    },
                    "status": "ZERO_RESULTS"
                },
                {
                    "distance": {
                        "text": "3.6 km",
                        "value": 3616
                    },
                    "duration": {
                        "text": "9 min",
                        "value": 541
                    },
                    "status": "OK"
                },
                {
                    "distance": {
                        "text": "2.8 km",
                        "value": 2831
                    },
                    "duration": {
                        "text": "8 min",
                        "value": 474
                    },
                    "status": "OK"
                },
                {
                    "distance": {
                        "text": "1.3 km",
                        "value": 1334
                    },
                    "duration": {
                        "text": "9 min",
                        "value": 527
                    },
                    "status": "OK"
                },
                {
                    "distance": {
                        "text": "4.8 km",
                        "value": 4750
                    },
                    "duration": {
                        "text": "10 min",
                        "value": 594
                    },
                    "status": "OK"
                }
            ]
        },
        {
            "elements": [
                {
                    "distance": {
                        "text": "2.8 km",
                        "value": 2752
                    },
                    "duration": {
                        "text": "6 min",
                        "value": 351
                    },
                    "status": "OK"
                },
                {
                    "distance": {
                        "text": "2.1 km",
                        "value": 2080
                    },
                    "duration": {
                        "text": "5 min",
                        "value": 313
                    },
                    "status": "OK"
                },
                {
                    "distance": {
                        "text": "4.9 km",
                        "value": 4941
                    },
                    "duration": {
                        "text": "10 min",
                        "value": 596
                    },
                    "status": "OK"
                },
                {
                    "distance": {
                        "text": "1.9 km",
                        "value": 1877
                    },
                    "duration": {
                        "text": "5 min",
                        "value": 281
                    },
                    "status": "OK"
                },
                {
                    "distance": {
                        "text": "5.5 km",
                        "value": 5528
                    },
                    "duration": {
                        "text": "11 min",
                        "value": 656
                    },
                    "status": "OK"
                },
                {
                    "distance": {
                        "text": "3.6 km",
                        "value": 3600
                    },
                    "duration": {
                        "text": "8 min",
                        "value": 503
                    },
                    "status": "OK"
                },
                {
                    "distance": {
                        "text": "1 ft",
                        "value": 0
                    },
                    "duration": {
                        "text": "1 min",
                        "value": 0
                    },
                    "status": "ZERO_RESULTS"
                },
                {
                    "distance": {
                        "text": "1.4 km",
                        "value": 1382
                    },
                    "duration": {
                        "text": "4 min",
                        "value": 232
                    },
                    "status": "OK"
                },
                {
                    "distance": {
                        "text": "5.6 km",
                        "value": 5583
                    },
                    "duration": {
                        "text": "11 min",
                        "value": 688
                    },
                    "status": "OK"
                },
                {
                    "distance": {
                        "text": "8.2 km",
                        "value": 8206
                    },
                    "duration": {
                        "text": "15 min",
                        "value": 895
                    },
                    "status": "OK"
                }
            ]
        },
        {
            "elements": [
                {
                    "distance": {
                        "text": "2.4 km",
                        "value": 2412
                    },
                    "duration": {
                        "text": "5 min",
                        "value": 292
                    },
                    "status": "OK"
                },
                {
                    "distance": {
                        "text": "1.2 km",
                        "value": 1169
                    },
                    "duration": {
                        "text": "11 min",
                        "value": 651
                    },
                    "status": "OK"
                },
                {
                    "distance": {
                        "text": "4.6 km",
                        "value": 4601
                    },
                    "duration": {
                        "text": "9 min",
                        "value": 537
                    },
                    "status": "OK"
                },
                {
                    "distance": {
                        "text": "2.5 km",
                        "value": 2468
                    },
                    "duration": {
                        "text": "5 min",
                        "value": 329
                    },
                    "status": "OK"
                },
                {
                    "distance": {
                        "text": "5.1 km",
                        "value": 5053
                    },
                    "duration": {
                        "text": "11 min",
                        "value": 635
                    },
                    "status": "OK"
                },
                {
                    "distance": {
                        "text": "3.3 km",
                        "value": 3260
                    },
                    "duration": {
                        "text": "7 min",
                        "value": 444
                    },
                    "status": "OK"
                },
                {
                    "distance": {
                        "text": "991 m",
                        "value": 991
                    },
                    "duration": {
                        "text": "3 min",
                        "value": 186
                    },
                    "status": "OK"
                },
                {
                    "distance": {
                        "text": "1 ft",
                        "value": 0
                    },
                    "duration": {
                        "text": "1 min",
                        "value": 0
                    },
                    "status": "ZERO_RESULTS"
                },
                {
                    "distance": {
                        "text": "5.1 km",
                        "value": 5108
                    },
                    "duration": {
                        "text": "11 min",
                        "value": 667
                    },
                    "status": "OK"
                },
                {
                    "distance": {
                        "text": "7.9 km",
                        "value": 7866
                    },
                    "duration": {
                        "text": "14 min",
                        "value": 836
                    },
                    "status": "OK"
                }
            ]
        },
        {
            "elements": [
                {
                    "distance": {
                        "text": "1.7 km",
                        "value": 1673
                    },
                    "duration": {
                        "text": "6 min",
                        "value": 331
                    },
                    "status": "OK"
                },
                {
                    "distance": {
                        "text": "4.5 km",
                        "value": 4534
                    },
                    "duration": {
                        "text": "10 min",
                        "value": 596
                    },
                    "status": "OK"
                },
                {
                    "distance": {
                        "text": "3.2 km",
                        "value": 3226
                    },
                    "duration": {
                        "text": "9 min",
                        "value": 515
                    },
                    "status": "OK"
                },
                {
                    "distance": {
                        "text": "6.3 km",
                        "value": 6311
                    },
                    "duration": {
                        "text": "13 min",
                        "value": 755
                    },
                    "status": "OK"
                },
                {
                    "distance": {
                        "text": "2 km",
                        "value": 1974
                    },
                    "duration": {
                        "text": "5 min",
                        "value": 318
                    },
                    "status": "OK"
                },
                {
                    "distance": {
                        "text": "1.2 km",
                        "value": 1215
                    },
                    "duration": {
                        "text": "9 min",
                        "value": 554
                    },
                    "status": "OK"
                },
                {
                    "distance": {
                        "text": "4.8 km",
                        "value": 4834
                    },
                    "duration": {
                        "text": "10 min",
                        "value": 612
                    },
                    "status": "OK"
                },
                {
                    "distance": {
                        "text": "4 km",
                        "value": 4049
                    },
                    "duration": {
                        "text": "9 min",
                        "value": 546
                    },
                    "status": "OK"
                },
                {
                    "distance": {
                        "text": "1 ft",
                        "value": 0
                    },
                    "duration": {
                        "text": "1 min",
                        "value": 0
                    },
                    "status": "ZERO_RESULTS"
                },
                {
                    "distance": {
                        "text": "4.4 km",
                        "value": 4412
                    },
                    "duration": {
                        "text": "10 min",
                        "value": 606
                    },
                    "status": "OK"
                }
            ]
        },
        {
            "elements": [
                {
                    "distance": {
                        "text": "5.8 km",
                        "value": 5809
                    },
                    "duration": {
                        "text": "11 min",
                        "value": 680
                    },
                    "status": "OK"
                },
                {
                    "distance": {
                        "text": "7.6 km",
                        "value": 7553
                    },
                    "duration": {
                        "text": "14 min",
                        "value": 856
                    },
                    "status": "OK"
                },
                {
                    "distance": {
                        "text": "6.4 km",
                        "value": 6397
                    },
                    "duration": {
                        "text": "10 min",
                        "value": 629
                    },
                    "status": "OK"
                },
                {
                    "distance": {
                        "text": "9.6 km",
                        "value": 9569
                    },
                    "duration": {
                        "text": "17 min",
                        "value": 1010
                    },
                    "status": "OK"
                },
                {
                    "distance": {
                        "text": "4.4 km",
                        "value": 4355
                    },
                    "duration": {
                        "text": "7 min",
                        "value": 412
                    },
                    "status": "OK"
                },
                {
                    "distance": {
                        "text": "5.1 km",
                        "value": 5082
                    },
                    "duration": {
                        "text": "10 min",
                        "value": 597
                    },
                    "status": "OK"
                },
                {
                    "distance": {
                        "text": "8.1 km",
                        "value": 8091
                    },
                    "duration": {
                        "text": "14 min",
                        "value": 867
                    },
                    "status": "OK"
                },
                {
                    "distance": {
                        "text": "7.3 km",
                        "value": 7306
                    },
                    "duration": {
                        "text": "13 min",
                        "value": 800
                    },
                    "status": "OK"
                },
                {
                    "distance": {
                        "text": "3.6 km",
                        "value": 3626
                    },
                    "duration": {
                        "text": "7 min",
                        "value": 448
                    },
                    "status": "OK"
                },
                {
                    "distance": {
                        "text": "1 ft",
                        "value": 0
                    },
                    "duration": {
                        "text": "1 min",
                        "value": 0
                    },
                    "status": "ZERO_RESULTS"
                }
            ]
        }
    ],
    "status": "OK"
}