{
    "destination_addresses": [
        "Lipowa 18, 15-429 Bia\u0142ystok, Poland",
        "Grodzie\u0144ska 19, 16-100 Sok\u00f3\u0142ka, Poland",
        "Henryka Sienkiewicza 2, 18-400 \u0141om\u017ca, Poland",
        "Nowomiejska 5A, 16-400 Suwa\u0142ki, Poland"
    ],
    "origin_addresses": [
        "Lipowa 18, 15-429 Bia\u0142ystok, Poland",
        "Grodzie\u0144ska 19, 16-100 Sok\u00f3\u0142ka, Poland",
        "Henryka Sienkiewicza 2, 18-400 \u0141om\u017ca, Poland",
        "Nowomiejska 5A, 16-400 Suwa\u0142ki, Poland"
    ],
    "rows": [
        {
            "elements": [
                {
                    "distance": {
                        "text": "1 ft",
                        "value": 0
                    },
                    "duration": {
                        "text": "1 min",
                        "value": 0
                    },
                    "status": "ZERO_RESULTS"
                },
                {
                    "distance": {
                        "text": "44.1 km",
                        "value": 44145
                    },
                    "duration": {
                        "text": "39 min",
                        "value": 2358
                    },
                    "status": "OK"
                },
                {
                    "distance": {
                        "text": "78.2 km",
                        "value": 78226
                    },
                    "duration": {
                        "text": "1 h 3 min",
                        "value": 3762
                    },
                    "status": "OK"
                },
                {
                    "distance": {
                        "text": "131.4 km",
                        "value": 131444
                    },
                    "duration": {
                        "text": "1 h 48 min",
                        "value": 6471
                    },
                    "status": "OK"
                }
            ]
        },
        {
            "elements": [
                {
                    "distance": {
                        "text": "43.7 km",
                        "value": 43672
                    },
                    "duration": {
                        "text": "40 min",
                        "value": 2402
                    },
                    "status": "OK"
                },
                {
                    "distance": {
                        "text": "1 ft",
                        "value": 0
                    },
                    "duration": {
                        "text": "1 min",
                        "value": 0
                    },
                    "status": "ZERO_RESULTS"
                },
                {
                    "distance": {
                        "text": "117.7 km",
                        "value": 117678
                    },
                    "duration": {
                        "text": "1 h 29 min",
                        "value": 5362
                    },
                    "status": "OK"
                },
                {
                    "distance": {
                        "text": "105.8 km",
                        "value": 105774
                    },
                    "duration": {
                        "text": "1 h 34 min",
                        "value": 5657
                    },
                    "status": "OK"
                }
            ]
        },
        {
            "elements": [
                {
                    "distance": {
                        "text": "80.5 km",
                        "value": 80507
                    },
                    "duration": {
                        "text": "1 h 4 min",
                        "value": 3841
                    },
                    "status": "OK"
                },
                {
                    "distance": {
                        "text": "119.5 km",
                        "value": 119507
                    },
                    "duration": {
                        "text": "1 h 30 min",
                        "value": 5397
                    },
                    "status": "OK"
                },
                {
                    "distance": {
                        "text": "1 ft",
                        "value": 0
                    },
                    "duration": {
                        "text": "1 min",
                        "value": 0
                    },
                    "status": "ZERO_RESULTS"
                },
                {
                    "distance": {
                        "text": "141.5 km",
                        "value": 141496
                    },
                    "duration": {
                        "text": "2 h 8 min",
                        "value": 7673
                    },
                    "status": "OK"
                }
            ]
        },
        {
            "elements": [
                {
                    "distance": {
                        "text": "135.5 km",
                        "value": 135462
                    },
                    "duration": {
                        "text": "1 h 48 min",
                        "value": 6455
                    },
                    "status": "OK"
                },
                {
                    "distance": {
                        "text": "105.5 km",
                        "value": 105452
                    },
                    "duration": {
                        "text": "1 h 35 min",
                        "value": 5694
                    },
                    "status": "OK"
                },
                {
                    "distance": {
                        "text": "150.9 km",
                        "value": 150907
                    },
                    "duration": {
                        "text": "2 h 4 min",
                        "value": 7450
                    },
                    "status": "OK"
                },
                {
                    "distance": {
                        "text": "1 ft",
                        "value": 0
                    },
                    "duration": {
                        "text": "1 min",
                        "value": 0
                    },
                    "status": "ZERO_RESULTS"
                }
            ]
        }
    ],
    "status": "OK"
}