{
    "destination_addresses": [
        "Zesp\u00f3\u0142 Szk\u00f3\u0142 Mechanicznych i Og\u00f3lnokszta\u0142c\u0105cych Nr 5 w \u0141om\u017cy, Przykoszarowa 22, 18-400 \u0141om\u017ca, Poland",
        "Genera\u0142a J\u00f3zefa Dwernickiego 10, 16-400 Suwa\u0142ki, Poland",
        "Ludwika Wary\u0144skiego 14, 16-402 Suwa\u0142ki, Poland",
        "Wojska Polskiego 21a, 16-400 Suwa\u0142ki, Poland",
        "Pi\u0119kna 2, 15-369 Bia\u0142ystok, Poland",
        "Aleja Jana Pawla II 51, 15-704 Bia\u0142ystok, Poland",
        "W\u0142adys\u0142awa Broniewskiego 14, 15-750 Bia\u0142ystok, Poland",
        "Weso\u0142a 16, 15-306 Bia\u0142ystok, Poland",
        "Wiewi\u00f3rcza 64, 15-532 Bia\u0142ystok, Poland",
        "Aleja Tysi\u0105clecia Pa\u0144stwa Polskiego 14, 15-111 Bia\u0142ystok, Poland"
    ],
    "origin_addresses": [
        "Zesp\u00f3\u0142 Szk\u00f3\u0142 Mechanicznych i Og\u00f3lnokszta\u0142c\u0105cych Nr 5 w \u0141om\u017cy, Przykoszarowa 22, 18-400 \u0141om\u017ca, Poland",
        "Genera\u0142a J\u00f3zefa Dwernickiego 10, 16-400 Suwa\u0142ki, Poland",
        "Ludwika Wary\u0144skiego 14, 16-402 Suwa\u0142ki, Poland",
        "Wojska Polskiego 21a, 16-400 Suwa\u0142ki, Poland",
        "Pi\u0119kna 2, 15-369 Bia\u0142ystok, Poland",
        "Aleja Jana Pawla II 51, 15-704 Bia\u0142ystok, Poland",
        "W\u0142adys\u0142awa Broniewskiego 14, 15-750 Bia\u0142ystok, Poland",
        "Weso\u0142a 16, 15-306 Bia\u0142ystok, Poland",
        "Wiewi\u00f3rcza 64, 15-532 Bia\u0142ystok, Poland",
        "Aleja Tysi\u0105clecia Pa\u0144stwa Polskiego 14, 15-111 Bia\u0142ystok, Poland"
    ],
    "rows": [
        {
            "elements": [
                {
                    "distance": {
                        "text": "1 ft",
                        "value": 0
                    },
                    "duration": {
                        "text": "1 min",
                        "value": 0
                    },
                    "status": "ZERO_RESULTS"
                },
                {
                    "distance": {
                        "text": "140.1 km",
                        "value": 140119
                    },
                    "duration": {
                        "text": "2 h 8 min",
                        "value": 7699
                    },
                    "status": "OK"
                },
                {
                    "distance": {
                        "text": "139.3 km",
                        "value": 139295
                    },
                    "duration": {
                        "text": "2 h 6 min",
                        "value": 7578
                    },
                    "status": "OK"
                },
                {
                    "distance": {
                        "text": "136.8 km",
                        "value": 136774
                    },
                    "duration": {
                        "text": "2 h 2 min",
                        "value": 7339
                    },
                    "status": "OK"
                },
                {
                    "distance": {
                        "text": "82.6 km",
                        "value": 82626
                    },
                    "duration": {
                        "text": "1 h 5 min",
                        "value": 3910
                    },
                    "status": "OK"
                },
                {
                    "distance": {
                        "text": "77.4 km",
                        "value": 77380
                    },
                    "duration": {
                        "text": "59 min",
                        "value": 3510
                    },
                    "status": "OK"
                },
                {
                    "distance": {
                        "text": "78.6 km",
                        "value": 78565
                    },
                    "duration": {
                        "text": "1 h 1 min",
                        "value": 3654
                    },
                    "status": "OK"
                },
                {
                    "distance": {
                        "text": "82.3 km",
                        "value": 82297
                    },
                    "duration": {
                        "text": "1 h 8 min",
                        "value": 4098
                    },
                    "status": "OK"
                },
                {
                    "distance": {
                        "text": "86.4 km",
                        "value": 86386
                    },
                    "duration": {
                        "text": "1 h 9 min",
                        "value": 4115
                    },
                    "status": "OK"
                },
                {
                    "distance": {
                        "text": "81.8 km",
                        "value": 81838
                    },
                    "duration": {
                        "text": "1 h 1 min",
                        "value": 3652
                    },
                    "status": "OK"
                }
            ]
        },
        {
            "elements": [
                {
                    "distance": {
                        "text": "140.4 km",
                        "value": 140389
                    },
                    "duration": {
                        "text": "2 h 10 min",
                        "value": 7795
                    },
                    "status": "OK"
                },
                {
                    "distance": {
                        "text": "1 ft",
                        "value": 0
                    },
                    "duration": {
                        "text": "1 min",
                        "value": 0
                    },
                    "status": "ZERO_RESULTS"
                },
                {
                    "distance": {
                        "text": "1.7 km",
                        "value": 1665
                    },
                    "duration": {
                        "text": "5 min",
                        "value": 323
                    },
                    "status": "OK"
                },
                {
                    "distance": {
                        "text": "4.1 km",
                        "value": 4121
                    },
                    "duration": {
                        "text": "8 min",
                        "value": 480
                    },
                    "status": "OK"
                },
                {
                    "distance": {
                        "text": "122.9 km",
                        "value": 122906
                    },
                    "duration": {
                        "text": "1 h 50 min",
                        "value": 6621
                    },
                    "status": "OK"
                },
                {
                    "distance": {
                        "text": "123 km",
                        "value": 122988
                    },
                    "duration": {
                        "text": "1 h 47 min",
                        "value": 6442
                    },
                    "status": "OK"
                },
                {
                    "distance": {
                        "text": "122.6 km",
                        "value": 122598
                    },
                    "duration": {
                        "text": "1 h 47 min",
                        "value": 6398
                    },
                    "status": "OK"
                },
                {
                    "distance": {
                        "text": "127.4 km",
                        "value": 127422
                    },
                    "duration": {
                        "text": "1 h 53 min",
                        "value": 6760
                    },
                    "status": "OK"
                },
                {
                    "distance": {
                        "text": "129.1 km",
                        "value": 129055
                    },
                    "duration": {
                        "text": "1 h 52 min",
                        "value": 6744
                    },
                    "status": "OK"
                },
                {
                    "distance": {
                        "text": "121.6 km",
                        "value": 121632
                    },
                    "duration": {
                        "text": "1 h 45 min",
                        "value": 6303
                    },
                    "status": "OK"
                }
            ]
        },
        {
            "elements": [
                {
                    "distance": {
                        "text": "139.5 km",
                        "value": 139488
                    },
                    "duration": {
                        "text": "2 h 7 min",
                        "value": 7641
                    },
                    "status": "OK"
                },
                {
                    "distance": {
                        "text": "1.6 km",
                        "value": 1606
                    },
                    "duration": {
                        "text": "5 min",
                        "value": 305
                    },
                    "status": "OK"
                },
                {
                    "distance": {
                        "text": "1 ft",
                        "value": 0
                    },
                    "duration": {
                        "text": "1 min",
                        "value": 0
                    },
                    "status": "ZERO_RESULTS"
                },
                {
                    "distance": {
                        "text": "2.2 km",
                        "value": 2246
                    },
                    "duration": {
                        "text": "5 min",
                        "value": 280
                    },
                    "status": "OK"
                },
                {
                    "distance": {
                        "text": "122 km",
                        "value": 122005
                    },
                    "duration": {
                        "text": "1 h 48 min",
                        "value": 6468
                    },
                    "status": "OK"
                },
                {
                    "distance": {
                        "text": "122.1 km",
                        "value": 122087
                    },
                    "duration": {
                        "text": "1 h 45 min",
                        "value": 6289
                    },
                    "status": "OK"
                },
                {
                    "distance": {
                        "text": "121.7 km",
                        "value": 121697
                    },
                    "duration": {
                        "text": "1 h 44 min",
                        "value": 6244
                    },
                    "status": "OK"
                },
                {
                    "distance": {
                        "text": "126.5 km",
                        "value": 126521
                    },
                    "duration": {
                        "text": "1 h 50 min",
                        "value": 6606
                    },
                    "status": "OK"
                },
                {
                    "distance": {
                        "text": "128.2 km",
                        "value": 128154
                    },
                    "duration": {
                        "text": "1 h 50 min",
                        "value": 6591
                    },
                    "status": "OK"
                },
                {
                    "distance": {
                        "text": "120.7 km",
                        "value": 120731
                    },
                    "duration": {
                        "text": "1 h 42 min",
                        "value": 6149
                    },
                    "status": "OK"
                }
            ]
        },
        {
            "elements": [
                {
                    "distance": {
                        "text": "136.9 km",
                        "value": 136911
                    },
                    "duration": {
                        "text": "2 h 4 min",
                        "value": 7419
                    },
                    "status": "OK"
                },
                {
                    "distance": {
                        "text": "3.3 km",
                        "value": 3274
                    },
                    "duration": {
                        "text": "8 min",
                        "value": 475
                    },
                    "status": "OK"
                },
                {
                    "distance": {
                        "text": "2.3 km",
                        "value": 2254
                    },
                    "duration": {
                        "text": "5 min",
                        "value": 292
                    },
                    "status": "OK"
                },
                {
                    "distance": {
                        "text": "1 ft",
                        "value": 0
                    },
                    "duration": {
                        "text": "1 min",
                        "value": 0
                    },
                    "status": "ZERO_RESULTS"
                },
                {
                    "distance": {
                        "text": "119.4 km",
                        "value": 119428
                    },
                    "duration": {
                        "text": "1 h 44 min",
                        "value": 6246
                    },
                    "status": "OK"
                },
                {
                    "distance": {
                        "text": "119.5 km",
                        "value": 119510
                    },
                    "duration": {
                        "text": "1 h 41 min",
                        "value": 6066
                    },
                    "status": "OK"
                },
                {
                    "distance": {
                        "text": "119.1 km",
                        "value": 119120
                    },
                    "duration": {
                        "text": "1 h 40 min",
                        "value": 6022
                    },
                    "status": "OK"
                },
                {
                    "distance": {
                        "text": "123.9 km",
                        "value": 123944
                    },
                    "duration": {
                        "text": "1 h 46 min",
                        "value": 6384
                    },
                    "status": "OK"
                },
                {
                    "distance": {
                        "text": "125.6 km",
                        "value": 125577
                    },
                    "duration": {
                        "text": "1 h 46 min",
                        "value": 6369
                    },
                    "status": "OK"
                },
                {
                    "distance": {
                        "text": "118.2 km",
                        "value": 118154
                    },
                    "duration": {
                        "text": "1 h 39 min",
                        "value": 5927
                    },
                    "status": "OK"
                }
            ]
        },
        {
            "elements": [
                {
                    "distance": {
                        "text": "81.6 km",
                        "value": 81552
                    },
                    "duration": {
                        "text": "1 h 6 min",
                        "value": 3974
                    },
                    "status": "OK"
                },
                {
                    "distance": {
                        "text": "132.3 km",
                        "value": 132292
                    },
                    "duration": {
                        "text": "1 h 49 min",
                        "value": 6565
                    },
                    "status": "OK"
                },
                {
                    "distance": {
                        "text": "130.3 km",
                        "value": 130345
                    },
                    "duration": {
                        "text": "1 h 47 min",
                        "value": 6400
                    },
                    "status": "OK"
                },
                {
                    "distance": {
                        "text": "120.6 km",
                        "value": 120613
                    },
                    "duration": {
                        "text": "1 h 44 min",
                        "value": 6253
                    },
                    "status": "OK"
                },
                {
                    "distance": {
                        "text": "1 ft",
                        "value": 0
                    },
                    "duration": {
                        "text": "1 min",
                        "value": 0
                    },
                    "status": "ZERO_RESULTS"
                },
                {
                    "distance": {
                        "text": "3.6 km",
                        "value": 3616
                    },
                    "duration": {
                        "text": "9 min",
                        "value": 551
                    },
                    "status": "OK"
                },
                {
                    "distance": {
                        "text": "2.8 km",
                        "value": 2831
                    },
                    "duration": {
                        "text": "8 min",
                        "value": 491
                    },
                    "status": "OK"
                },
                {
                    "distance": {
                        "text": "1.3 km",
                        "value": 1334
                    },
                    "duration": {
                        "text": "9 min",
                        "value": 527
                    },
                    "status": "OK"
                },
                {
                    "distance": {
                        "text": "4.8 km",
                        "value": 4750
                    },
                    "duration": {
                        "text": "10 min",
                        "value": 601
                    },
                    "status": "OK"
                },
                {
                    "distance": {
                        "text": "4.6 km",
                        "value": 4612
                    },
                    "duration": {
                        "text": "10 min",
                        "value": 579
                    },
                    "status": "OK"
                }
            ]
        },
        {
            "elements": [
                {
                    "distance": {
                        "text": "77.4 km",
                        "value": 77360
                    },
                    "duration": {
                        "text": "59 min",
                        "value": 3528
                    },
                    "status": "OK"
                },
                {
                    "distance": {
                        "text": "131.3 km",
                        "value": 131265
                    },
                    "duration": {
                        "text": "1 h 46 min",
                        "value": 6368
                    },
                    "status": "OK"
                },
                {
                    "distance": {
                        "text": "129.3 km",
                        "value": 129318
                    },
                    "duration": {
                        "text": "1 h 43 min",
                        "value": 6203
                    },
                    "status": "OK"
                },
                {
                    "distance": {
                        "text": "119.6 km",
                        "value": 119586
                    },
                    "duration": {
                        "text": "1 h 41 min",
                        "value": 6057
                    },
                    "status": "OK"
                },
                {
                    "distance": {
                        "text": "3.6 km",
                        "value": 3600
                    },
                    "duration": {
                        "text": "9 min",
                        "value": 531
                    },
                    "status": "OK"
                },
                {
                    "distance": {
                        "text": "1 ft",
                        "value": 0
                    },
                    "duration": {
                        "text": "1 min",
                        "value": 0
                    },
                    "status": "ZERO_RESULTS"
                },
                {
                    "distance": {
                        "text": "1.4 km",
                        "value": 1382
                    },
                    "duration": {
                        "text": "4 min",
                        "value": 253
                    },
                    "status": "OK"
                },
                {
                    "distance": {
                        "text": "5.6 km",
                        "value": 5583
                    },
                    "duration": {
                        "text": "12 min",
                        "value": 713
                    },
                    "status": "OK"
                },
                {
                    "distance": {
                        "text": "8 km",
                        "value": 7966
                    },
                    "duration": {
                        "text": "16 min",
                        "value": 967
                    },
                    "status": "OK"
                },
                {
                    "distance": {
                        "text": "4.9 km",
                        "value": 4914
                    },
                    "duration": {
                        "text": "9 min",
                        "value": 563
                    },
                    "status": "OK"
                }
            ]
        },
        {
            "elements": [
                {
                    "distance": {
                        "text": "78 km",
                        "value": 77950
                    },
                    "duration": {
                        "text": "59 min",
                        "value": 3559
                    },
                    "status": "OK"
                },
                {
                    "distance": {
                        "text": "130.3 km",
                        "value": 130303
                    },
                    "duration": {
                        "text": "1 h 44 min",
                        "value": 6251
                    },
                    "status": "OK"
                },
                {
                    "distance": {
                        "text": "128.4 km",
                        "value": 128356
                    },
                    "duration": {
                        "text": "1 h 41 min",
                        "value": 6086
                    },
                    "status": "OK"
                },
                {
                    "distance": {
                        "text": "118.6 km",
                        "value": 118624
                    },
                    "duration": {
                        "text": "1 h 39 min",
                        "value": 5939
                    },
                    "status": "OK"
                },
                {
                    "distance": {
                        "text": "3.3 km",
                        "value": 3260
                    },
                    "duration": {
                        "text": "8 min",
                        "value": 456
                    },
                    "status": "OK"
                },
                {
                    "distance": {
                        "text": "990 m",
                        "value": 990
                    },
                    "duration": {
                        "text": "3 min",
                        "value": 189
                    },
                    "status": "OK"
                },
                {
                    "distance": {
                        "text": "1 ft",
                        "value": 0
                    },
                    "duration": {
                        "text": "1 min",
                        "value": 0
                    },
                    "status": "ZERO_RESULTS"
                },
                {
                    "distance": {
                        "text": "5.1 km",
                        "value": 5108
                    },
                    "duration": {
                        "text": "11 min",
                        "value": 681
                    },
                    "status": "OK"
                },
                {
                    "distance": {
                        "text": "7.9 km",
                        "value": 7866
                    },
                    "duration": {
                        "text": "14 min",
                        "value": 854
                    },
                    "status": "OK"
                },
                {
                    "distance": {
                        "text": "3.8 km",
                        "value": 3763
                    },
                    "duration": {
                        "text": "8 min",
                        "value": 453
                    },
                    "status": "OK"
                }
            ]
        },
        {
            "elements": [
                {
                    "distance": {
                        "text": "81.6 km",
                        "value": 81560
                    },
                    "duration": {
                        "text": "1 h 5 min",
                        "value": 3894
                    },
                    "status": "OK"
                },
                {
                    "distance": {
                        "text": "132.4 km",
                        "value": 132432
                    },
                    "duration": {
                        "text": "1 h 50 min",
                        "value": 6589
                    },
                    "status": "OK"
                },
                {
                    "distance": {
                        "text": "130.5 km",
                        "value": 130485
                    },
                    "duration": {
                        "text": "1 h 47 min",
                        "value": 6424
                    },
                    "status": "OK"
                },
                {
                    "distance": {
                        "text": "120.8 km",
                        "value": 120753
                    },
                    "duration": {
                        "text": "1 h 45 min",
                        "value": 6278
                    },
                    "status": "OK"
                },
                {
                    "distance": {
                        "text": "1.2 km",
                        "value": 1215
                    },
                    "duration": {
                        "text": "9 min",
                        "value": 554
                    },
                    "status": "OK"
                },
                {
                    "distance": {
                        "text": "4.8 km",
                        "value": 4834
                    },
                    "duration": {
                        "text": "10 min",
                        "value": 620
                    },
                    "status": "OK"
                },
                {
                    "distance": {
                        "text": "4 km",
                        "value": 4049
                    },
                    "duration": {
                        "text": "9 min",
                        "value": 561
                    },
                    "status": "OK"
                },
                {
                    "distance": {
                        "text": "1 ft",
                        "value": 0
                    },
                    "duration": {
                        "text": "1 min",
                        "value": 0
                    },
                    "status": "ZERO_RESULTS"
                },
                {
                    "distance": {
                        "text": "4.4 km",
                        "value": 4412
                    },
                    "duration": {
                        "text": "10 min",
                        "value": 615
                    },
                    "status": "OK"
                },
                {
                    "distance": {
                        "text": "4.8 km",
                        "value": 4752
                    },
                    "duration": {
                        "text": "10 min",
                        "value": 603
                    },
                    "status": "OK"
                }
            ]
        },
        {
            "elements": [
                {
                    "distance": {
                        "text": "88.9 km",
                        "value": 88936
                    },
                    "duration": {
                        "text": "1 h 8 min",
                        "value": 4064
                    },
                    "status": "OK"
                },
                {
                    "distance": {
                        "text": "137.1 km",
                        "value": 137074
                    },
                    "duration": {
                        "text": "1 h 51 min",
                        "value": 6630
                    },
                    "status": "OK"
                },
                {
                    "distance": {
                        "text": "135.1 km",
                        "value": 135127
                    },
                    "duration": {
                        "text": "1 h 48 min",
                        "value": 6465
                    },
                    "status": "OK"
                },
                {
                    "distance": {
                        "text": "125.4 km",
                        "value": 125395
                    },
                    "duration": {
                        "text": "1 h 45 min",
                        "value": 6319
                    },
                    "status": "OK"
                },
                {
                    "distance": {
                        "text": "5.1 km",
                        "value": 5082
                    },
                    "duration": {
                        "text": "10 min",
                        "value": 615
                    },
                    "status": "OK"
                },
                {
                    "distance": {
                        "text": "8.1 km",
                        "value": 8135
                    },
                    "duration": {
                        "text": "15 min",
                        "value": 924
                    },
                    "status": "OK"
                },
                {
                    "distance": {
                        "text": "6.6 km",
                        "value": 6553
                    },
                    "duration": {
                        "text": "15 min",
                        "value": 881
                    },
                    "status": "OK"
                },
                {
                    "distance": {
                        "text": "3.6 km",
                        "value": 3626
                    },
                    "duration": {
                        "text": "8 min",
                        "value": 458
                    },
                    "status": "OK"
                },
                {
                    "distance": {
                        "text": "1 ft",
                        "value": 0
                    },
                    "duration": {
                        "text": "1 min",
                        "value": 0
                    },
                    "status": "ZERO_RESULTS"
                },
                {
                    "distance": {
                        "text": "10.2 km",
                        "value": 10204
                    },
                    "duration": {
                        "text": "14 min",
                        "value": 832
                    },
                    "status": "OK"
                }
            ]
        },
        {
            "elements": [
                {
                    "distance": {
                        "text": "79.6 km",
                        "value": 79564
                    },
                    "duration": {
                        "text": "57 min",
                        "value": 3446
                    },
                    "status": "OK"
                },
                {
                    "distance": {
                        "text": "127.7 km",
                        "value": 127680
                    },
                    "duration": {
                        "text": "1 h 40 min",
                        "value": 5986
                    },
                    "status": "OK"
                },
                {
                    "distance": {
                        "text": "125.7 km",
                        "value": 125733
                    },
                    "duration": {
                        "text": "1 h 37 min",
                        "value": 5821
                    },
                    "status": "OK"
                },
                {
                    "distance": {
                        "text": "116 km",
                        "value": 116001
                    },
                    "duration": {
                        "text": "1 h 35 min",
                        "value": 5674
                    },
                    "status": "OK"
                },
                {
                    "distance": {
                        "text": "4.8 km",
                        "value": 4798
                    },
                    "duration": {
                        "text": "11 min",
                        "value": 672
                    },
                    "status": "OK"
                },
                {
                    "distance": {
                        "text": "4.9 km",
                        "value": 4880
                    },
                    "duration": {
                        "text": "8 min",
                        "value": 492
                    },
                    "status": "OK"
                },
                {
                    "distance": {
                        "text": "4.5 km",
                        "value": 4490
                    },
                    "duration": {
                        "text": "7 min",
                        "value": 448
                    },
                    "status": "OK"
                },
                {
                    "distance": {
                        "text": "9.1 km",
                        "value": 9097
                    },
                    "duration": {
                        "text": "13 min",
                        "value": 785
                    },
                    "status": "OK"
                },
                {
                    "distance": {
                        "text": "10.7 km",
                        "value": 10730
                    },
                    "duration": {
                        "text": "13 min",
                        "value": 770
                    },
                    "status": "OK"
                },
                {
                    "distance": {
                        "text": "1 ft",
                        "value": 0
                    },
                    "duration": {
                        "text": "1 min",
                        "value": 0
                    },
                    "status": "ZERO_RESULTS"
                }
            ]
        }
    ],
    "status": "OK"
}