{
    "destination_addresses": [
        "Zesp\u00f3\u0142 Szk\u00f3\u0142 Mechanicznych i Og\u00f3lnokszta\u0142c\u0105cych Nr 5 w \u0141om\u017cy, Przykoszarowa 22, 18-400 \u0141om\u017ca, Poland",
        "Genera\u0142a J\u00f3zefa Dwernickiego 10, 16-400 Suwa\u0142ki, Poland",
        "Ludwika Wary\u0144skiego 14, 16-402 Suwa\u0142ki, Poland",
        "Wojska Polskiego 21a, 16-400 Suwa\u0142ki, Poland",
        "Pi\u0119kna 2, 15-369 Bia\u0142ystok, Poland",
        "Aleja Jana Pawla II 51, 15-704 Bia\u0142ystok, Poland",
        "W\u0142adys\u0142awa Broniewskiego 14, 15-750 Bia\u0142ystok, Poland",
        "Weso\u0142a 16, 15-306 Bia\u0142ystok, Poland",
        "Wiewi\u00f3rcza 64, 15-532 Bia\u0142ystok, Poland",
        "Aleja Tysi\u0105clecia Pa\u0144stwa Polskiego 14, 15-111 Bia\u0142ystok, Poland"
    ],
    "origin_addresses": [
        "Swobodna 54f, 15-756 Bia\u0142ystok, Poland",
        "Produkcyjna 102, 15-680 Bia\u0142ystok, Poland",
        "Ryska 1, 15-369 Bia\u0142ystok, Poland",
        "Towarowa 1, 15-007 Bia\u0142ystok, Poland",
        "Genera\u0142a W\u0142adys\u0142awa Andersa 42, 15-113 Bia\u0142ystok, Poland"
    ],
    "rows": [
        {
            "elements": [
                {
                    "distance": {
                        "text": "76.8 km",
                        "value": 76837
                    },
                    "duration": {
                        "text": "57 min",
                        "value": 3417
                    },
                    "status": "OK"
                },
                {
                    "distance": {
                        "text": "131.1 km",
                        "value": 131091
                    },
                    "duration": {
                        "text": "1 h 45 min",
                        "value": 6322
                    },
                    "status": "OK"
                },
                {
                    "distance": {
                        "text": "129.1 km",
                        "value": 129144
                    },
                    "duration": {
                        "text": "1 h 43 min",
                        "value": 6157
                    },
                    "status": "OK"
                },
                {
                    "distance": {
                        "text": "119.4 km",
                        "value": 119412
                    },
                    "duration": {
                        "text": "1 h 40 min",
                        "value": 6011
                    },
                    "status": "OK"
                },
                {
                    "distance": {
                        "text": "4.5 km",
                        "value": 4488
                    },
                    "duration": {
                        "text": "10 min",
                        "value": 593
                    },
                    "status": "OK"
                },
                {
                    "distance": {
                        "text": "1.4 km",
                        "value": 1448
                    },
                    "duration": {
                        "text": "7 min",
                        "value": 450
                    },
                    "status": "OK"
                },
                {
                    "distance": {
                        "text": "2.3 km",
                        "value": 2270
                    },
                    "duration": {
                        "text": "5 min",
                        "value": 314
                    },
                    "status": "OK"
                },
                {
                    "distance": {
                        "text": "6.5 km",
                        "value": 6471
                    },
                    "duration": {
                        "text": "13 min",
                        "value": 774
                    },
                    "status": "OK"
                },
                {
                    "distance": {
                        "text": "8.9 km",
                        "value": 8854
                    },
                    "duration": {
                        "text": "17 min",
                        "value": 1028
                    },
                    "status": "OK"
                },
                {
                    "distance": {
                        "text": "5.1 km",
                        "value": 5069
                    },
                    "duration": {
                        "text": "10 min",
                        "value": 584
                    },
                    "status": "OK"
                }
            ]
        },
        {
            "elements": [
                {
                    "distance": {
                        "text": "76.4 km",
                        "value": 76354
                    },
                    "duration": {
                        "text": "55 min",
                        "value": 3321
                    },
                    "status": "OK"
                },
                {
                    "distance": {
                        "text": "132 km",
                        "value": 132034
                    },
                    "duration": {
                        "text": "1 h 44 min",
                        "value": 6262
                    },
                    "status": "OK"
                },
                {
                    "distance": {
                        "text": "130.1 km",
                        "value": 130087
                    },
                    "duration": {
                        "text": "1 h 42 min",
                        "value": 6097
                    },
                    "status": "OK"
                },
                {
                    "distance": {
                        "text": "120.4 km",
                        "value": 120355
                    },
                    "duration": {
                        "text": "1 h 39 min",
                        "value": 5950
                    },
                    "status": "OK"
                },
                {
                    "distance": {
                        "text": "7.2 km",
                        "value": 7230
                    },
                    "duration": {
                        "text": "14 min",
                        "value": 840
                    },
                    "status": "OK"
                },
                {
                    "distance": {
                        "text": "4.9 km",
                        "value": 4941
                    },
                    "duration": {
                        "text": "9 min",
                        "value": 563
                    },
                    "status": "OK"
                },
                {
                    "distance": {
                        "text": "5.3 km",
                        "value": 5340
                    },
                    "duration": {
                        "text": "9 min",
                        "value": 556
                    },
                    "status": "OK"
                },
                {
                    "distance": {
                        "text": "13.5 km",
                        "value": 13475
                    },
                    "duration": {
                        "text": "17 min",
                        "value": 1038
                    },
                    "status": "OK"
                },
                {
                    "distance": {
                        "text": "15.1 km",
                        "value": 15108
                    },
                    "duration": {
                        "text": "17 min",
                        "value": 1023
                    },
                    "status": "OK"
                },
                {
                    "distance": {
                        "text": "7.7 km",
                        "value": 7685
                    },
                    "duration": {
                        "text": "10 min",
                        "value": 582
                    },
                    "status": "OK"
                }
            ]
        },
        {
            "elements": [
                {
                    "distance": {
                        "text": "82.3 km",
                        "value": 82300
                    },
                    "duration": {
                        "text": "1 h",
                        "value": 3620
                    },
                    "status": "OK"
                },
                {
                    "distance": {
                        "text": "130.4 km",
                        "value": 130438
                    },
                    "duration": {
                        "text": "1 h 43 min",
                        "value": 6186
                    },
                    "status": "OK"
                },
                {
                    "distance": {
                        "text": "128.5 km",
                        "value": 128491
                    },
                    "duration": {
                        "text": "1 h 40 min",
                        "value": 6021
                    },
                    "status": "OK"
                },
                {
                    "distance": {
                        "text": "118.8 km",
                        "value": 118759
                    },
                    "duration": {
                        "text": "1 h 38 min",
                        "value": 5875
                    },
                    "status": "OK"
                },
                {
                    "distance": {
                        "text": "2.1 km",
                        "value": 2132
                    },
                    "duration": {
                        "text": "7 min",
                        "value": 426
                    },
                    "status": "OK"
                },
                {
                    "distance": {
                        "text": "4.5 km",
                        "value": 4501
                    },
                    "duration": {
                        "text": "10 min",
                        "value": 595
                    },
                    "status": "OK"
                },
                {
                    "distance": {
                        "text": "3.7 km",
                        "value": 3715
                    },
                    "duration": {
                        "text": "9 min",
                        "value": 536
                    },
                    "status": "OK"
                },
                {
                    "distance": {
                        "text": "4.1 km",
                        "value": 4116
                    },
                    "duration": {
                        "text": "11 min",
                        "value": 660
                    },
                    "status": "OK"
                },
                {
                    "distance": {
                        "text": "6.2 km",
                        "value": 6221
                    },
                    "duration": {
                        "text": "11 min",
                        "value": 681
                    },
                    "status": "OK"
                },
                {
                    "distance": {
                        "text": "3.1 km",
                        "value": 3058
                    },
                    "duration": {
                        "text": "5 min",
                        "value": 319
                    },
                    "status": "OK"
                }
            ]
        },
        {
            "elements": [
                {
                    "distance": {
                        "text": "83.3 km",
                        "value": 83269
                    },
                    "duration": {
                        "text": "1 h 2 min",
                        "value": 3734
                    },
                    "status": "OK"
                },
                {
                    "distance": {
                        "text": "131.3 km",
                        "value": 131291
                    },
                    "duration": {
                        "text": "1 h 46 min",
                        "value": 6361
                    },
                    "status": "OK"
                },
                {
                    "distance": {
                        "text": "129.3 km",
                        "value": 129344
                    },
                    "duration": {
                        "text": "1 h 43 min",
                        "value": 6196
                    },
                    "status": "OK"
                },
                {
                    "distance": {
                        "text": "119.6 km",
                        "value": 119612
                    },
                    "duration": {
                        "text": "1 h 41 min",
                        "value": 6049
                    },
                    "status": "OK"
                },
                {
                    "distance": {
                        "text": "3.4 km",
                        "value": 3419
                    },
                    "duration": {
                        "text": "9 min",
                        "value": 515
                    },
                    "status": "OK"
                },
                {
                    "distance": {
                        "text": "6 km",
                        "value": 6007
                    },
                    "duration": {
                        "text": "11 min",
                        "value": 640
                    },
                    "status": "OK"
                },
                {
                    "distance": {
                        "text": "5.2 km",
                        "value": 5221
                    },
                    "duration": {
                        "text": "10 min",
                        "value": 581
                    },
                    "status": "OK"
                },
                {
                    "distance": {
                        "text": "4.6 km",
                        "value": 4636
                    },
                    "duration": {
                        "text": "10 min",
                        "value": 592
                    },
                    "status": "OK"
                },
                {
                    "distance": {
                        "text": "5.1 km",
                        "value": 5149
                    },
                    "duration": {
                        "text": "10 min",
                        "value": 624
                    },
                    "status": "OK"
                },
                {
                    "distance": {
                        "text": "3.6 km",
                        "value": 3611
                    },
                    "duration": {
                        "text": "6 min",
                        "value": 375
                    },
                    "status": "OK"
                }
            ]
        },
        {
            "elements": [
                {
                    "distance": {
                        "text": "79.9 km",
                        "value": 79852
                    },
                    "duration": {
                        "text": "58 min",
                        "value": 3462
                    },
                    "status": "OK"
                },
                {
                    "distance": {
                        "text": "128 km",
                        "value": 127990
                    },
                    "duration": {
                        "text": "1 h 40 min",
                        "value": 6028
                    },
                    "status": "OK"
                },
                {
                    "distance": {
                        "text": "126 km",
                        "value": 126043
                    },
                    "duration": {
                        "text": "1 h 38 min",
                        "value": 5863
                    },
                    "status": "OK"
                },
                {
                    "distance": {
                        "text": "116.3 km",
                        "value": 116311
                    },
                    "duration": {
                        "text": "1 h 35 min",
                        "value": 5717
                    },
                    "status": "OK"
                },
                {
                    "distance": {
                        "text": "4.3 km",
                        "value": 4316
                    },
                    "duration": {
                        "text": "12 min",
                        "value": 739
                    },
                    "status": "OK"
                },
                {
                    "distance": {
                        "text": "5.2 km",
                        "value": 5167
                    },
                    "duration": {
                        "text": "8 min",
                        "value": 508
                    },
                    "status": "OK"
                },
                {
                    "distance": {
                        "text": "4.8 km",
                        "value": 4777
                    },
                    "duration": {
                        "text": "8 min",
                        "value": 464
                    },
                    "status": "OK"
                },
                {
                    "distance": {
                        "text": "8 km",
                        "value": 8024
                    },
                    "duration": {
                        "text": "15 min",
                        "value": 874
                    },
                    "status": "OK"
                },
                {
                    "distance": {
                        "text": "9.7 km",
                        "value": 9657
                    },
                    "duration": {
                        "text": "14 min",
                        "value": 858
                    },
                    "status": "OK"
                },
                {
                    "distance": {
                        "text": "3.2 km",
                        "value": 3168
                    },
                    "duration": {
                        "text": "15 min",
                        "value": 931
                    },
                    "status": "OK"
                }
            ]
        }
    ],
    "status": "OK"
}